127.947
157.914
147.897
156.805
130.184
105.299
117.157
105.439
106.665
148.972
142.023
125.285
151.477
144.584
116.095
139.303
135.891
118.042
115.877
119.392
106.493
129.987
114.354
109.434
140.34
134.123
121.422
123.986
110.892
128.62
106.114
131.611
154.553
155.452
154.08
125.734
116.963
132.552
119.772
134.178
144.261
119.587
129.674
109.478
127.55
153.604
130.719
155.074
118.634
129.933
108.951
110.798
139.242
111.641
153.987
159.771
136.936
121.259
158.792
110.621
153.91
106.735
142.932
141.66
114.831
128.403
159.341
114.911
106.353
119.237
133.613
106.256
132.544
156.121
143.349
141.046
145.756
137.383
136.532
106.33
120.219
143.742
154.113
121.504
152.467
141.582
139.376
141.278
154.945
138.345
141.868
156.343
139.972
147.781
127.095
120.969
109.091
138.728
149.45
145.772
114.678
146.337
115.073
133.363
153.689
126.799
127.441
142.754
122.821
128.313
154.713
130.474
117.035
152.835
113.599
127.595
146.513
127.734
111.636
148.463
128.386
143.249
137.707
146.065
149.175
108.347
109.633
122.531
122.14
117.721
121.479
124.696
153.732
129.687
133.65
112.52
127.874
112.562
157.867
122.963
154.237
154.648
126.75
109.577
131.86
125.845
110.234
116.828
110.91
125.13
115.205
144.576
158.849
131.715
134.675
108.972
122.627
110.097
135.523
125.217
121.008
136.457
136.799
111.236
112.067
123.351
144.854
116.607
141.9
129.77
115.035
135.23
150.177
107.183
122.176
140.139
126.423
134.438
109.027
123.504
126.558
148.332
144.825
122.104
111.119
108.384
133.652
156.512
135.72
143.198
115.964
155.858
138.958
108.333
108.739
137.165
140.256
126.024
115.424
119.65
130.188
142.316
127.41
115.338
155.24
128.361
108.56
112.014
119.448
159.851
127.097
126.289
117.915
145.244
147.451
157.655
142.496
119.555
139.339
109.056
119.141
118.491
122.098
147.555
127.965
139.714
152.683
106.713
123.295
143.088
135.482
156.839
118.879
144.201
119.975
122.915
159.159
127.315
111.74
149
121.002
106.481
159.094
114.606
134.431
125.079
123.898
109.108
107.482
107.837
154.765
134.409
114.537
127.477
125.035
110.133
124.024
128.505
137.579
150.796
134.228
155.735
145.88
122.163
154.808
124.202
151.417
107.806
140.91
106.798
152.294
106.149
129.178
154.016
105.544
125.562
110.621
130.02
125.202
142.037
136.458
120.637
157.179
137.196
149.712
108.752
121.123
118.459
135.686
141.273
152.143
124.602
153.614
128.094
138.898
118.841
131.98
143.01
151.969
115.756
147.518
121.073
114.392
127.567
109.723
111.975
146.47
159.142
121.831
106.691
122.475
157.746
113.379
142.204
135.31
106.577
153.937
155.467
131.992
152.263
139.136
146.351
112.734
129.864
140.79
134.91
105.09
139.532
147.312
154.187
148.617
133.344
112.747
105.252
109.653
156.662
157.379
105.382
152.999
136.603
111.031
135.818
105.93
142.899
119.441
111.44
123.897
151.561
120.014
120.54
146.827
114.824
135.951
150.676
153.533
115.558
149.008
109.23
117.634
126.386
115.958
129.081
114.937
142.358
109.359
136.908
145.501
125.794
112.076
128.852
140.131
135.179
113.817
119.166
112.746
124.218
134.506
141.17
156.156
123.837
119.247
126.116
132.581
148.179
123.933
122.835
137.828
143.869
150.173
114.491
147.381
108.185
129.657
111.129
128.268
126.395
124.581
155.357
105.633
105.667
124.816
126.772
128.23
137.18
115.924
159.058
138.632
114.048
114.511
113.031
127.558
158.335
123.539
111.169
115.803
137.016
116.132
111.441
157.569
108.663
140.133
109.879
139.583
129.092
136.687
114.56
122.609
105.081
105.804
128.651
118.069
142.649
142.63
126.897
124.391
134.351
111.908
118.047
152.725
122.191
128.442
113.855
145.813
112.026
132.423
122.66
138.928
138.558
131.362
128.171
131.511
119.405
115.802
116.737
131.192
129.478
135.369
124.667
140.387
150.441
122.215
121.716
115.627
115.866
111.937
158.457
155.418
155.17
142.202
117.829
117.284
109.168
113.487
118.789
109.968
117.258
131.758
117.616
141.542
114.829
128.086
119.219
158.249
105.744
135.034
117.52
113.94
117.245
115.224
150.769
143.763
113.848
147.18
134.126
155.051
142.02
137.819
114.402
106.798
108.894
134.468
138.303
123.909
137.275
141.744
124.543
147.939
126.519
107.552
127.098
156.193
123.893
119.904
151.813
154.587
117.681
151.296
125.513
146.489
131.662
119.296
110.07
121.16
158.481
124.483
136.686
139.341
127.232
159.949
132.573
151.017
124.645
144.039
105.41
126.952
123.645
135.308
142.813
113.222
135.12
125.077
154.254
134.399
118.942
150.395
146.295
123.084
136.81
148.233
143.832
111.829
138.644
139.181
143.767
132.827
144.837
153.642
158.722
140.152
105.967
134.855
115.936
127.502
128.527
118.225
108.791
127.348
123.103
152.592
136.697
153.244
107.716
138.467
114.883
117.346
122.021
139.652
150.458
138.233
149.159
109.021
134.805
112.636
141.361
154.002
127.589
120.398
135.599
135.197
110.835
142.607
138.311
117.916
120.361
114.747
140.076
146.406
127.131
105.188
124.3
123.289
123.837
158.47
124.682
105.283
117.483
125.107
129.136
137.974
148.137
106.249
120.424
128.39
112.768
146.417
108.63
137.362
123.396
135.054
121.545
115.264
142.373
134.589
142.335
150.887
123.354
142.868
108.8
123.677
125.426
135.267
107.289
148.274
110.657
116.807
110.617
118.02
113.84
110.51
118.9
106.051
111.801
113.731
132.934
123.238
109.774
113.442
124.665
138.123
147.434
113.919
137.659
121.273
112.571
121.974
137.733
106.003
128.637
133.395
125.208
138.314
134.671
118.452
119.31
115.118
111.74
107.925
108.423
130.627
156.209
133.918
119.59
115.704
105.03
151.998
155.385
110.5
145.163
110.557
112.294
137.374
155.241
143.839
155.983
147.041
140.584
123.192
121.151
143.218
142.357
135.937
126.204
114.389
129.963
123.385
137.141
154.16
109.156
146.672
155.366
128.178
143.858
133.227
107.11
126.776
137.943
158.7
127.486
124.878
129.392
106.491
156.049
119.13
146.258
107.908
108.66
151.703
134.117
143.542
125.849
123.959
151.539
143.357
140.927
120.02
139.667
141.008
115.705
111.378
128.81
157.716
125.537
138.055
151.918
148.779
154.923
108.998
155.266
126.496
108.728
123.962
159.575
125.359
144.071
117.353
137.093
106.274
129.399
133.194
111.543
116.743
134.796
142.774
118.524
119.429
132.809
109.331
125.429
149.958
140.533
130.129
146.998
124.245
130.889
114.607
107.887
146.087
151.508
121.973
158.628
135.72
110.572
143.352
131.545
127.422
121.624
121.731
149.877
107.625
148.14
117.02
148.777
148.504
140.054
107.419
110.451
145.137
109.947
127.765
135.302
134.321
116.174
157.407
120.067
146.807
144.152
157.555
109.961
118.744
139.457
108.487
107.823
124.98
154.672
116.353
133.601
112.546
122.86
114.378
154.619
106.169
109.885
127.872
129.855
123.411
128.439
120.313
138.597
155.636
114.453
141.565
142.554
111.676
125.862
151.776
117.738
108.31
117.273
141.072
108.085
127.724
109.348
125.011
127.571
132.638
108.107
116.523
118.758
146.819
130.925
132.275
134.104
132.343
151.703
120.783
107.582
118.767
118.169
130.509
111.612
124.773
159.683
159.6
137.216
138.922
158.022
130.976
109.644
148.862
159.016
149.884
114.51
141.733
127.364
118.06
122.216
124.936
107.139
111.311
133.912
114.81
130.931
108.316
115.829
159.657
126.878
127.459
122.214
142.246
151.843
105.156
138.313
124.125
156.506
129.439
125.692
136.924
128.761
128.775
150.714
119.447
116.607
128.194
105.807
113.956
152.252
105.923
142.587
145.704
131.367
135.651
123.322
112.931
108.238
111.781
155.29
111.535
137.678
113.265
147.544
140.096
132.222
111.444
129.887
128.079
116.766
140.24
105.346
114.262
134.23
148.882
139.499
132.903
116.84
124.193
144.166
148.397
144.033
125.169
158.817
131.919
111.376
133.857
124.9
112.389
137.676
117.805
139.828
125.477
151.989
131.381
151.06
107.195
143.259
128.45
112.734
114.935
118.345
141.667
116.456
108.911
140.137
107.454
137.673
126.106
131.296
120.332
153.263
123.965
110.302
138.103
111.377
107.805
134.931
130.12
111.821
144.374
126.73
136.076
127.762
120.748
118.675
126.533
114.336
153.079
156.927
130.72
111.844
122.144
139.207
126.536
114.014
141.292
123.339
146.902
153.238
130.356
119.826
107.337
125.253
107.743
121.193
109.084
149.49
117.484
152.136
114.563
114.059
108.683
124.951
108.152
128.393
151.509
127.953
126.839
111.539
118.892
114.385
158.315
105.431
123.582
123.505
112.905
151.763
116.484
124.789
106.458
138.122
152.523
109.177
112.514
136.986
148.449
159.278
143.063
131.097
111.358
127.088
115.135
132.698
150.237
121.419
128.501
154.365
159.117
125.405
124.974
124.952
152.598
124.259
140.902
138
145.448
116.496
122.756
117.578
115.094
129.565
113.002
156.929
124.024
122.892
150.131
147.632
113.743
140.969
108.261
120.526
131.692
157.146
126.023
116.421
154.154
122.006
149.993
105.031
154.979
105.329
153.467
148.179
132.201
139.666
112.834
137.399
156.114
146.78
109.966
119.069
146.023
150.488
127.17
151.821
108.164
131.741
117.303
108.297
121.319
123.977
113.243
116.907
139.844
123.604
110.382
108.005
117.436
108.396
134.751
129.565
129.521
136.386
133.977
120.07
117.254
132.881
122.842
149.204
138.92
139.118
117.397
119.607
105.247
112.6
111.344
108.885
145.229
117.43
155.209
117.662
123.42
144.328
110.082
112.21
110.044
121.803
134.724
133.95
116.185
107.496
120.722
105.752
133.796
110.586
145.223
111.823
108.98
116.409
135.756
149.498
151.869
115.761
120.912
111.14
107.909
112.172
125.779
124.493
139.786
143.604
117.513
151.748
109.494
113.922
131.02
153.449
122.916
116.472
137.788
127.121
141.344
137.063
122.589
122.284
131.871
125.375
150.675
133.083
121.95
121.586
107.264
105.725
122.956
106.7
140.802
131.848
137.433
125.038
120.549
105.466
124.398
113.542
138.852
130.823
149.044
124.732
105.595
119.948
150.944
124.69
134.837
109.868
138.641
109.991
110.602
140.003
139.442
126.525
145.033
154.155
134.207
139.788
124.607
144.43
150.57
143.993
133.421
112.134
113.153
146.563
128.206
116.746
132.478
131.294
126.739
120.26
132.808
130.872
107.98
129.376
106.438
132.905
108.592
113.604
123.214
131.079
145.993
125.605
106.711
116.579
132.396
130.528
125.211
131.208
117.399
110.684
122.872
141.909
139.083
123.068
114.691
109.688
121.189
146.165
155.19
122.062
114.593
141.87
110.539
107.605
124.313
131.037
109.912
145.912
113.67
128.507
128.73
136.899
111.81
122.145
120.997
111.184
116.867
138.737
121.794
159.31
147.822
119.701
133.375
149.34
109.69
115.234
124.702
112.42
129.004
135.967
106.532
126.44
130.831
132.665
133.267
119.846
143.888
109.325
106.769
127.132
112.519
154.218
124.751
144.444
120.984
129.515
149.551
149.069
115.473
159.401
150.977
149.213
148.756
106.764
109.09
110.219
116.353
146.354
127.438
112.709
124.756
111.066
143.702
158.93
126.475
147.553
117.296
111.492
149.399
156.26
113.159
131.605
124.118
118.975
120.294
114.568
117.438
126.617
131.795
152.155
122.79
139.994
109.3
122.881
142.777
136.376
106.382
109.382
114.385
111.851
106.883
128.674
155.071
118.058
136.724
146.528
111.162
127.568
107.781
107.341
118.494
129.714
124.733
124.365
116.627
116.942
155.073
155.325
117.37
134.418
116.913
144.119
106.162
134.528
112.371
146.566
121.705
107.671
109.335
142.47
147.659
159.538
127.043
116.928
117.672
110.821
105.711
110.891
134.081
106.337
159.264
113.569
156.268
115.816
121.938
131.062
116.953
105.42
144.67
139.612
119.836
149.291
122.05
128.311
118.882
129.987
108.556
113.3
116.799
105.862
152.795
138.39
116.785
118.105
122.582
114.051
134.646
117.264
126.475
146.375
126.117
122.384
156.75
144.075
145.101
145.427
120.678
140.328
125.076
117.803
137.33
117.638
144.049
156.357
116.799
110.944
158.842
148.693
139.16
143.915
113.169
129.82
150.313
130.46
144.112
121.712
110.571
127.127
137.029
113.303
140.483
153.272
120.226
120.072
107.015
147.238
143.103
114.783
120.209
154.282
118.229
119.415
119.059
109.129
107.817
113.01
146.257
112.131
128.411
133.858
109.456
115.376
132.384
114.374
107.244
115.287
146.618
123.431
142.431
105.157
152.071
118.789
121.921
126.314
157.263
126.157
105.514
142.299
143.458
121.545
135.712
116.993
137.242
134.61
139.181
112.051
128.201
145.05
143.527
107.147
120.327
121.904
139.869
114.48
150.662
115.352
132.477
112.733
144.812
119.886
111.985
151.165
149.872
145.948
143.001
150.428
106.802
144.668
154.997
105.99
119.122
159.568
118.821
131.148
118.439
131.954
129.995
107.008
113.864
150.784
157.054
155.7
158.665
130.74
128.019
116.766
117.194
113.443
110.486
122.714
109.782
131.82
156.181
155.186
118.077
108.606
114.822
149.827
107.14
114.954
110.036
148.441
140.98
157.382
148.191
159.443
147.229
130.577
114.844
122.865
149.425
145.723
112.363
133.076
124.971
139.926
145.226
106.144
132.244
111.557
124.136
118.18
146.751
149.962
125.755
117.779
152.741
131.389
110.558
127.68
113.7
138.862
111
135.137
106.737
154.78
146.94
105.896
107.95
144.294
116.162
129.009
131.63
134.556
141.431
141.059
106.339
145.282
108.365
112.672
153.144
127.56
141.238
114.899
109.615
119.682
124.458
154.74
107.491
125.922
138.123
118.251
128.941
115.355
118.805
140.493
105.444
157.742
109.407
142.998
114.977
113.225
114.501
113.494
110.027
110.977
130.634
142.381
146.912
113.543
129.51
113.21
121.253
150.66
146.528
111.071
113.107
139.983
122.734
133.367
106.856
119.545
144.636
136.63
127.752
144.326
132.712
115.935
155.005
146.399
125.843
110.887
111.198
144.073
157.057
135.114
115.251
147.939
126.593
128.234
113.524
128.93
127.728
105.212
128.546
113.935
107.646
159.342
135.978
142.101
140.447
146.841
107.124
141.791
142.601
122.274
118.545
130.522
118.334
106.004
113.385
116.541
152.587
154.726
105.393
155.689
117.923
115.573
115.413
128.008
144.753
124.996
116.017
112.072
144.08
143.342
151.473
112.194
155.877
140.885
109.424
119.765
150.767
115.504
129.156
116.515
138.931
119.979
105.691
125.862
155.194
123.205
147.1
135.978
128.553
113.055
128.237
130.537
139.863
123.976
117.651
110.315
121.851
136.09
117.477
111.646
117.627
132.585
152.171
146.614
126.684
144.383
122.739
110.672
149.189
111.165
114.677
131.523
112.056
153.539
143.479
109.13
130.424
132.197
136.665
131.476
113.929
119.118
107.777
107.252
147.636
114.782
111.568
115.19
119.32
141.686
123.519
111.917
116.508
127.8
114.953
112.586
105.317
115.137
108.402
150.214
124.931
153.23
150.612
128.237
113.39
137.799
118.633
131.904
113.729
126.435
135.549
107.102
117.76
124.821
113.752
138.909
112.127
115.752
129.066
157.162
107.072
152.001
116.482
144.657
128.705
108.403
147.828
135.522
128.654
148.801
119.511
155.957
112.746
117.748
127.092
149.001
120.909
133.991
157.763
112.208
151.758
113.441
134.35
153.21
148.253
153.302
132.285
143.892
137.174
119.945
156.654
121.57
158.176
118.745
131.568
138.196
158.314
117.577
115.487
105.793
125.242
153.173
114.339
158.685
135.724
127.522
148.843
113.098
158.404
141
139.621
142.45
131.226
151.443
159.077
146.565
110.541
121.311
122.62
112.002
130.204
106.546
105.185
112.326
134.764
120.418
129.798
114.65
121.133
117.252
107.388
157.208
135.038
124.816
130.711
143.094
139.893
144.487
128.504
118.863
120.881
113.595
110.037
127.784
138.837
115.003
126.914
139.883
154.063
135.878
107.969
130.665
127.144
128.016
126.262
142.507
145.534
113.711
109.166
127.591
118.195
120.975
149.21
126.362
113.692
111.825
131.393
110.753
151.468
116.444
131.727
115.832
122.863
147.828
129.174
116.17
158.932
140.87
158.717
114.779
144.841
109.887
125.626
151.264
126.953
107.44
108.241
135.961
115.792
124.048
107.88
106.224
120.359
129.727
125.986
115.927
133.754
114.547
125.081
139.28
109.784
146.767
131.586
114.856
137.044
114.031
130.282
120.078
111.363
122.111
131.201
146.171
118.513
135
128.505
119.806
149.911
119.203
124.565
133.284
113.274
133.38
150.066
150.47
125.841
153.831
105.974
108.043
142.268
154.27
152.144
115.367
146.889
143.146
117.332
106.663
154.693
135.272
108.787
128.712
154.396
108.155
117.274
108.736
135.65
135.723
128.123
137.734
136.369
112.247
143.301
144.381
131.469
123.661
110.285
125.137
106.866
106.389
119.193
151.731
127.802
127.642
145.164
109.775
123.568
128.724
138.093
122.07
151.89
154.653
113.173
132.195
120.618
137.161
151.059
134.048
108.035
111.072
124.736
141.576
115.287
139.566
114.353
121.992
138.73
118.629
134.427
112.54
113.56
137.782
146.995
159.84
115.969
124.925
158.134
139.489
108.739
142.505
116.835
127.176
121.275
115.984
136.428
125.61
129.902
125.852
150.751
128.852
142.244
117.689
107.825
159.561
121.671
111.592
156.037
149.657
139.722
126.955
106.416
142.869
124.426
117.953
156.851
122.306
107.422
127.736
123.781
125.811
153.541
146.552
128.917
130.61
136.426
155.377
128.006
116.701
151.914
119.822
115.655
116.588
148.369
150.266
124.003
110.991
136.712
126.53
135.426
131.215
134.204
150.959
135.089
117.408
107.264
134.836
154.212
154.818
148.978
106.543
126.66
127.29
123.827
123.036
155.989
148.203
133.953
113.602
147.082
122.112
114.295
144.983
116.981
118.371
133.896
109.69
105.332
117.688
113.709
156.997
120.388
122.093
141.973
130.546
128.303
111.08
120.107
146.121
105.572
149.29
129.671
137.55
107.236
109.165
129.447
154.086
134.392
138.212
114.776
147.529
143.807
130.307
123.888
144.131
132.492
136.463
140.609
136.272
136.459
145.959
105.814
151.679
112.812
136.863
124.252
107.618
116.704
109.966
122.269
107.622
118.925
158.628
133.806
136.144
122.117
127.624
112.057
130.33
108.011
146.936
112.207
114.799
152.19
105.564
138.485
132.049
113.091
152.945
116.968
129.325
143.053
151.356
124.629
125.339
113.284
135.927
130.287
126.861
117.898
134.872
151.926
140.517
118.747
107.963
110.718
134.34
117.301
138.117
148.626
151.595
127.894
159.74
153.102
111.657
127.094
105.057
134.006
121.096
158.911
117.613
135.292
119.657
140.787
113.749
156.872
114.38
123.802
129.033
108.398
157.786
112.458
105.712
110.196
114.693
156.532
114.153
109.391
122.077
155.246
126.145
106.047
115.159
127.908
137.809
107.837
114.145
128.191
134.792
125.842
120.688
150.715
143.909
142.19
144.49
116.19
116.139
141.629
105.722
110.695
130.996
157.336
130.77
123.834
115.654
122.35
110.509
140.451
142.784
129.913
142.225
148.354
129.064
110.842
130.183
120.977
118.099
107.169
152.689
117.658
131.334
141.102
112.747
130.059
149.157
149.259
128.152
108.518
108.854
119.951
147.09
144.471
128.456
133.564
146.551
118.045
154.135
117.185
146.823
105.494
134.449
155.59
115.569
122.834
157.602
129.79
129.537
112.156
150.678
118.364
153.698
125.143
153.163
119.766
135.765
131.294
107.184
155.604
114.092
112.445
136.424
111.806
105.764
145.328
111.931
143.28
137.082
149.543
131.892
135.412
149.181
117.201
141.108
105.33
128.919
129.768
158.906
152.737
128.362
134.793
123.438
152.776
127.373
133.634
148.777
140.7
122.321
129.723
111.816
110.914
128.877
154.53
113.898
131.147
110.159
135.61
116.754
108.198
127.665
108.683
142.241
114.485
150.704
135.629
113.995
110.489
125.859
142.364
126.774
105.791
137.491
142.072
125.138
119.145
108.213
124.966
149.592
127.913
142.879
137.194
123.512
142.847
154.991
135.077
122.534
113.823
122.123
157.026
127.262
108.869
117.494
124.603
120.432
129.127
148.405
138.939
142.114
124.781
116.669
112.237
120.849
130.139
151.19
122.176
150.499
151.675
131.742
105.379
157.107
144.46
139.616
120.147
129.987
146.945
105.834
118.267
112.401
159.528
139.179
125.668
108.327
152.535
152.67
133.338
107.412
113.074
110.378
125.524
108.937
108.995
127.601
146.842
153.54
153.252
123.956
111.254
157.727
144.243
123.166
127.834
127.936
128.923
127.339
113.297
117.629
124.673
141.588
148.408
159.814
112.796
110.762
105.952
147.348
141.347
116.797
109.749
113.989
129.461
115.867
127.61
125.845
125.286
125.982
134.932
152.786
124.854
105.275
119.026
117.828
111.36
131.078
106.178
105.563
140.573
125.417
137.207
114.412
143.907
127.395
157.728
115.552
109.374
153.809
113.189
116.82
155.074
108.078
158.712
118.508
114.009
148.742
153.004
128.73
117.649
159.192
137.414
123.852
130.319
118.62
126.072
124.189
117.25
137.19
126.118
159.484
118.257
148.979
130.911
146.73
109.248
110.441
132.892
144.581
110.276
117.128
108.445
124.07
134.529
123.875
118.085
125.329
153.721
144.21
136.289
127.343
148.948
105.983
134.719
105.068
118.644
134.305
125.809
150.97
151.533
138.153
152.175
116.451
147.348
126.619
123.068
125.037
110.308
113.092
118.976
113.598
156.09
138
117.911
120.922
107.376
134.434
125.332
125.615
110.067
126.801
107.463
131.826
125.288
131.546
109.766
114.22
156.758
140.708
140.734
123.705
113.398
131.546
105.293
118.512
111.385
138.826
138.735
131.592
130.016
129.999
125.756
150.766
147.586
145.653
109
122.067
114.851
125.164
151.478
147.762
125.904
108.352
128.68
121.088
114.701
112.392
127.896
122.023
116.841
125.848
135.115
105.522
128.841
158.621
134.365
144.146
116.722
141.77
112.185
111.818
137.95
129.44
144.499
115.588
138.999
150.517
149.927
150.745
106.662
110.299
155.477
110.043
147.492
140.902
144.17
128.9
135.09
118.514
159.833
130.671
126.032
150.671
113.99
140.138
127.804
107
152.455
131.829
127.093
115.622
132.031
155.96
114.845
142.837
107.565
148.746
150.808
116.84
127.147
143.162
106.751
122.366
107.094
108.505
116.978
137.76
139.107
131.852
105.96
145.68
108.15
117.723
105.473
158.807
120.017
133.447
125.419
119.558
147.727
109.932
144.147
124.231
141.649
105.45
111.252
126.472
113.821
108.821
146.243
109.232
105.167
113.625
143.021
109.549
109.694
133.178
116.187
155.099
105.578
109.286
157.983
149.375
142.391
130.929
149.286
132.603
123.084
154.556
155.323
152.699
122.815
145.824
158.306
141.991
128.499
135.403
147.235
147.086
121.062
112.836
129.28
129.51
122.113
125.155
115.276
112.593
150.718
154.507
139.286
150.389
156.576
108.504
135.933
141.268
124.145
111.985
127.447
132.239
112.611
136.531
154.889
144.739
118.925
148.734
119.9
151.713
115.841
156.229
113.9
143.953
123.311
127.238
120.937
110.011
138.123
154.227
155.366
123.59
125.314
130.866
110.165
135.274
157.005
118.654
137.172
132.052
106.365
111.949
125.895
117.967
142.662
108.674
137.422
120.996
112.509
106.579
126.596
107.958
140.705
131.475
154.146
121.965
147.037
143.508
144.22
130.622
109.984
115.178
121.565
141.384
151.334
123.464
128.424
116.57
140.95
138.237
106.397
133.1
158.318
157.92
126.709
113.316
113.942
105.85
124.719
138.446
120.297
141.444
149.811
133.461
108.998
105.807
120.223
114.728
140.42
106.407
116.117
125.069
142.378
154.816
134.897
134.822
122.921
106.238
113.809
126.549
121.339
138.758
118.817
148.816
131.916
143.942
117.672
156.349
144.333
110.831
122.157
123.378
114.142
136.222
134.427
125.948
105.277
123.265
112.08
135.862
109.951
136.593
134.335
118.912
120.709
117.782
146.314
133.311
118
132.108
115.094
146.225
117.266
106.415
121.533
141.924
138.621
116.164
107.944
123.176
110.365
124.555
110.116
132.421
157.627
110.871
105.972
156.998
126.621
132.757
150.897
118.353
152.829
127.107
155.361
106.725
135.377
157.026
119.8
147.135
128.129
153.686
111.922
110.696
123.537
135.71
144.509
118.412
139.884
142.315
115.042
121.462
128.073
158.983
118.35
130.915
134.668
124.174
108.816
105.596
110.143
136.293
130.046
115.996
119.638
147.84
123.042
147.143
146.005
128.738
132.523
140.328
148.366
120.516
146.943
144.361
116.585
106.944
134.592
156.534
141.734
107.862
113.03
148.878
112.068
127.298
106.372
148.796
131.108
135.408
122.329
152.663
111.978
129.141
128.096
139.536
105.993
145.371
109.469
114.545
141.259
124.278
110.233
141.688
111.615
106.625
155.544
122.089
115.11
133.045
143.827
156.115
121.645
137.754
110.291
121.031
115.678
134.024
115.528
112.679
142.821
106.527
111.279
140.424
122.822
116.886
116.697
135.624
112.492
109.627
129.335
125.267
131.354
142.431
132.873
156.758
146.445
134.399
131.559
124.901
120.858
144.839
108.629
152.175
133.378
112.964
114.988
109.739
129.311
108.434
126.038
117.626
125.08
117.587
118.325
106.013
150.115
113.585
124.37
116.597
122.381
110.031
153.434
117.996
109.975
147.93
126.199
155.962
105.99
124.435
105.701
159.109
156.89
129.003
157.381
144.828
114.616
122.917
105.891
139.443
115.654
122.056
111.899
125.688
134.544
134.897
126.799
109.761
145.96
115.377
132.948
133.365
158.109
149.236
130.85
109.354
156.483
112.984
129.497
149.948
158.144
154.901
106.288
135.07
106.761
141.073
134.283
122.973
110.616
150.075
113.199
140.602
133.068
121.274
110.622
143.902
125.92
135.294
145.465
121.187
146.092
131.578
145.36
109.188
107.084
136.856
156.179
113.293
119.809
115.204
154.866
134.798
110.395
110.849
127.559
131.539
136.962
146.456
143.508
107.157
109.911
110.21
132.26
116.365
151.915
118.816
130.219
128.691
130.714
147.044
117.474
130.028
117.946
145.391
105.029
151.986
124.01
145.689
146.274
105.928
120.989
149.187
108.098
108.216
155.581
109.303
143.114
145.657
114.139
150.478
126.543
147.691
157.248
142.186
109.281
128.743
129.144
132.13
150.996
157.012
153.173
140.818
139.462
141.335
133.537
120.685
157.98
130.724
131.056
155.246
147.228
120.751
114.468
105.278
130.414
111.449
121.945
135.429
128.381
159.499
138.194
116.958
143.889
111.21
113.854
144.75
106.805
146.024
125.152
126.554
132.185
136.277
126.906
127.529
119.514
148.131
109.369
115.075
136.008
158.645
106.826
145.176
106.279
106.356
118.058
130.194
121.687
123.874
109.614
154.962
142.91
139.433
133.268
129.825
153.596
110.773
108.57
111.636
133.612
153.231
107.255
151.668
125.444
126.755
126.247
114.172
116.805
126.378
121.703
138.956
107.08
127.958
123.487
140.657
141.975
129.206
116.918
159.005
128.138
128.668
159.003
127.918
123.719
112.853
107.578
120.247
115.476
107.514
131.255
127.182
114.662
132.91
144.819
121.378
127.468
108.929
139.555
149.774
142.291
128.771
110.822
124.007
136.13
119.234
125.052
129.297
158.919
149.483
155.066
155.117
115.813
107.362
115.824
156.9
117.765
105.191
114.488
119.153
121.475
113.802
145.46
152.454
136.28
152.314
133.83
121.282
117.258
109.216
127.84
147.428
128.945
138.937
127.64
106.157
117.554
141.423
124.571
130.502
137.863
154.449
141.022
126.573
116.567
127.964
106.371
134.324
129.104
108.922
153.743
107.877
140.891
119.508
148.272
116.287
136.873
153.23
115.769
146.748
134.599
107.035
146.607
114.382
108.614
105.741
108.153
120.517
116.973
109.591
128.975
114.784
114.002
105.716
146.338
137.606
127.171
110.557
115.801
106.683
114.972
131.457
159.569
122.266
117.464
135.959
124.908
122.187
144.142
157.815
125.878
121.041
151.012
109.455
111.129
148.486
123.084
133.658
146.011
143.254
110.417
109.465
145.257
152.824
123.347
131.545
150.699
157.517
115.891
117.818
114.013
108.481
126.44
116.242
113.153
111.496
110.953
109.903
132.782
140.525
149.106
140.969
127.388
130.403
148.852
107.518
150.661
125.1
139.929
106.841
115.124
155.007
105.485
140.88
139.814
119.971
121.413
133.416
106.132
142.227
110.676
116.246
130.834
113.285
111.525
119.283
127.933
159.105
105.699
115.082
124.372
139.063
126.094
140.088
121.215
144.981
110.211
112.69
120.857
122.056
131.816
105.432
131.361
108.547
153.541
139.465
129.093
151.04
142.958
118.335
147.411
110.001
148.01
139.316
149.128
137.343
110.156
117.392
115.819
107.617
111.137
118.856
121.255
109.965
113.854
138.896
146.101
129.544
159.332
114.673
121.575
107.355
139.848
130.082
124.135
110.691
123.62
124.453
144.946
146.204
118.569
139.371
124.386
150.916
156.173
120.426
136.163
138.653
106.797
146.731
111.241
144.647
114.324
106.191
146.18
115.357
128.964
143.03
126.015
150.869
127.026
153.988
156.226
107.16
147.843
151.661
132.122
143.276
141.29
110.016
137.098
110.652
117.08
121.628
159.603
117.799
127.089
111.219
151.69
107.595
121.767
134.649
109.64
121.502
107.886
145.334
122.805
143.401
135.734
156.024
130.323
139.562
150.869
115.634
135.384
138.361
127.751
143.854
138.772
133.391
148.262
133.399
134.949
116.435
126.514
126.393
131.177
158.387
141.638
128.171
117.774
142.204
123.303
139.244
143.088
129.334
125.406
115.039
148.986
112.408
127.826
136.127
112.047
145.352
144.728
143.796
123.367
154.664
106.276
108.057
127.263
147.066
137.871
129.708
110.491
117.553
117.906
153.322
111.954
127.422
127.679
120.135
109.998
108.603
119.34
106.116
124.017
120.005
128.882
114.072
141.264
127.028
141.403
130.949
146.677
150.887
117.761
117.793
124.013
140.824
123.835
156.768
117.507
127.994
145.976
108.495
137.665
112.077
127.335
145.983
110.224
140.831
158.315
124.034
110.144
126.158
157.435
144.742
134.065
107.146
121.542
151.591
142.998
110.214
130.155
133.336
115.941
142.499
152.242
115.916
143.718
114.482
115.569
121.803
144.196
140.28
117.867
154.275
111.88
154.907
108.235
110.297
114.962
115.746
154.674
156.974
155.085
108.604
113.367
136.632
117.191
135.471
123.98
139.88
106.498
151.435
148.613
106.407
106.795
122.523
147.567
108.662
116.591
153.893
131.268
115.364
118.492
115.017
128.893
117.842
115.592
129.009
144.867
140.159
153.546
142.647
121.534
155.57
136.921
137.592
116.499
150.759
137.286
109.081
113.904
119.654
118.077
109.518
154.337
139.909
152.166
112.711
125.465
142.387
150.096
146.104
134.157
135.952
114.29
127.908
158.839
127.105
115.586
154.117
130.53
109.996
122.834
136.105
108.59
131.6
107.251
137.881
149.277
151.279
148.281
125.038
128.282
137.251
133.922
122.158
144.541
135.065
135.79
105.571
119.798
113.638
115.934
138.784
135.317
121.42
151.961
130.375
129.667
105.683
106.861
157.62
142.287
125.765
119.311
156.955
156.58
141.506
146.039
108.615
108.763
129.196
131.939
117.344
135.343
109.57
147.558
115.443
110.507
126.258
152.258
142.03
143.909
130.472
105.475
115.084
136.329
110.922
107.693
119.513
124.147
123.452
157.216
156.692
156.978
138.558
111.099
127.522
147.332
134.697
151.892
112.646
147.22
125.431
136.774
124.139
139.767
128.079
127.109
115.69
148.863
139.883
147.118
120.934
107.133
117.44
141.482
110.971
128.872
140.452
113.482
132.337
107.727
129.671
131.47
108.306
144.648
145.423
154.81
157.837
142.482
151.632
113.84
146.182
125.31
110.053
116.142
111.037
120.398
128.977
113.541
154.616
122.44
105.84
144.483
123.623
155.637
133.276
119.51
136.079
118.733
152.563
105.134
136.177
154.612
111.717
126.488
107.261
123.265
136.361
105.3
127.5
139.968
116.333
109.386
120.151
112.336
141.47
124.456
120.066
113.415
124.941
123.817
132.525
159.134
129.119
118.292
142.337
108.134
105.416
130.995
115.944
107.898
121.501
109.874
156.562
117.329
135.611
115.121
146.717
105.112
120.395
117.761
113.414
129.959
131.01
126.495
129.596
148.654
105.705
118.591
128.005
148.132
133.447
117.375
136.185
155.785
159.761
118.623
132.928
109.982
115.824
105.263
108.913
152.123
126.19
137.188
137.875
137.054
135.309
107.049
157.702
158.936
110.064
131.569
116.642
144.552
138.599
129.799
117.557
107.235
107.865
140.39
120.178
124.72
106.949
153.394
105.992
111.985
122.775
130.091
149.984
149.149
106.103
159.449
159.646
106.501
106.538
131.638
114.839
125.186
121.623
130.177
117.283
153.329
136.88
109.557
108.392
141.312
136.263
131.58
115.791
130.431
117.191
138.922
153.732
146.644
135.443
147.337
129
117.584
131.397
138.31
137.88
106.929
128.655
125.448
110.346
132.421
114.828
140.895
150.075
138.816
150.165
135.62
143.758
112.172
153.866
144.244
116.905
142.996
154.607
133.944
113.105
119.615
120.408
124.684
157.024
122.027
120.632
143.606
129.439
108.658
149.565
107.941
126.486
109.634
111.657
154.728
127.463
106.672
141.535
147.582
140.592
118.591
118.876
110.654
105.444
123.663
121.651
145.476
136.108
146.938
114.983
106.377
144.674
140.735
148.406
135.211
107.053
132.155
146.134
113.276
150.142
132.524
118.496
152.295
159.547
130.757
159.893
140.826
140.183
119.295
129.594
130.769
154.777
110.444
124.296
135.503
142.381
150.783
118.224
110.481
110.29
107.953
149.431
136.915
132.073
129.92
157.828
134.515
142.318
107.277
116.5
106.06
120.619
105.482
132.294
107.125
106.777
121.285
149.141
126.838
150.43
144.568
138.573
145.566
125.576
141.499
113.858
111.305
121.836
126.273
159.042
146.231
124.025
105.97
111.536
107.584
123.024
158.358
117.895
138.633
146.526
123.744
157.6
152.109
117.326
112.864
120.004
115.467
156.348
150.388
120.914
135.394
113.498
141.464
137.604
113.018
109.258
123.829
106.801
124.257
115.226
149.142
110.841
121.212
