149.162
154.698
148.08
105.454
133.908
131.308
152.772
116.724
124.746
127.281
132.993
117.275
106.656
115.208
124.992
122.559
107.942
111.66
142.419
146.798
105.505
153.481
128.574
143.07
108.479
126.505
113.864
128.14
133.401
124.129
115.398
122.866
113.481
155.12
111.761
134.655
108.638
116.857
120.316
132.483
143.07
139.5
113.26
108.883
131.653
117.043
126.438
130.122
124.952
126.131
148.155
117.892
143.221
116.736
105.683
106.949
128.703
116.489
153.379
114.008
121.351
110.511
121.217
111.187
146.528
124.269
140.161
107.734
114.245
126.265
133.415
134.141
127.28
125.646
106.958
149.613
125.864
132.703
133.295
111.362
151.778
115.728
116.18
123.306
119.998
109.739
112.414
117.809
119.835
107.168
133.322
156.497
142.252
110.507
118.783
121.928
128.788
116.447
119.745
109.126
143.839
107.02
114.182
145.355
124.221
106.043
112.355
119.396
146.587
116.264
144.132
111.224
144.805
148.698
141.007
125.222
137.735
136.815
123.462
119.475
115.476
111.361
134.77
147.263
153.899
147.9
159.369
128.35
155.809
112.085
109.737
109.22
121.299
131.624
113.97
134.97
158.139
154.837
111.496
133.292
118.726
106.244
133.131
110.22
134.399
105.296
131.999
119.892
155.313
131.123
118.798
111.912
114.801
135.098
116.955
109.721
117.734
111.869
138.32
110.071
105.704
119.227
113.247
115.686
159.598
107.26
135.265
119.002
144.092
109.495
139.042
153.247
114.068
118.83
150.72
155.428
109.451
114.819
132.234
128.597
109.849
142.772
135.98
156.711
149.339
126.738
126.255
114.123
111.484
120.901
117.035
127.201
124.034
118.8
127.994
124.408
115.8
106.48
156.62
149.404
109.457
125.598
120.371
139.918
126.919
119.949
127.07
137.492
114.296
152.282
128.954
113.643
107.194
117.831
120.148
137.244
143.711
123.922
137.048
113.114
109.666
115.435
124.354
133.531
116.637
146.452
150.662
146.753
133.883
127.569
105.518
130.473
127.195
112.141
129.919
111.895
121.919
114.333
127.927
136.84
129.673
136.368
152.767
155.423
136.652
159.507
153.383
113.845
124.057
150.162
115.818
158.233
107.777
152.752
115.981
145.127
106.778
150.279
106.031
156.254
142.736
110.817
138.249
139.255
112.171
141.804
135.827
115.186
114.132
137.976
109.111
147.787
107.778
153.96
124.719
159.272
112.795
115.031
139.617
124.556
142.471
111.133
131.481
118.035
118.282
130.614
120.433
136.91
129.338
114.086
119.095
132.825
121.072
130.928
113.537
143.647
118.011
117.33
145.607
106.386
137.992
139.669
108.382
118.759
115.175
135.31
121.704
147.018
128.794
114.859
159.052
125.892
109.77
133.335
105.007
145.057
120.092
113.043
106.062
125.145
130.956
126.462
125.098
112.182
119.63
108.42
114.335
145.868
128.194
154.223
109.034
110.667
105.717
144.259
149.799
122.945
127.413
155.367
120.191
136.261
125.947
133.241
123.332
124.792
107.253
123.701
114.24
108.856
116.08
126.002
158.625
130.358
106.876
144.593
133.455
139.788
142.931
116.31
141.759
137.106
115.464
105.713
131.557
131.274
141.76
134.476
143.008
118.421
143.729
116.977
150.861
115.897
140.775
109.448
128.127
123.68
125.217
125.597
112.154
131.654
111.031
126.029
111.924
107.646
151.807
139.279
115.037
148.979
123.8
121.024
107.803
119.257
141.873
110.07
107.088
117.659
141.922
108.805
125.62
109.546
144.462
158.435
111.569
133.488
111.323
117.139
159.974
120.829
144.328
105.235
109.404
141.2
105.161
107.115
127.847
107.674
115.446
157.161
132.091
152.855
151.342
146.477
142.375
111.461
145.702
134.827
144.949
112.287
127.675
152.242
127.227
157.995
129.056
113.422
146.074
113.247
125.855
113.674
119.878
125.072
125.254
110.205
128.434
105.836
121.782
105.714
144.985
108.088
124.614
122.391
117.983
106.074
117.265
124.971
116.477
117.272
113.396
130.116
108.761
139.14
149.138
136.682
106.282
132.123
150.406
115.201
108.984
130.783
120.269
141.327
108.127
156.108
130.201
152.542
131.673
122.468
136.737
149.132
105.136
145.96
122.961
131.749
139.003
111.568
120.44
