131.829
138.946
125.625
123.871
112.785
123.37
134.58
151.466
126.159
106.851
145.84
143.792
134.875
118.388
122.076
122.792
122.531
128.948
122.639
124.366
126.328
109.718
135.943
110.972
124.814
123.003
152.909
150.232
135.025
105.108
106.176
106.2
141.723
106.111
127.196
118.183
124.595
124.963
144.446
117.971
117.181
126.618
122.736
122.305
141.131
137.115
115.556
111.088
121.067
124.175
122.071
116.157
146.979
138.008
124.238
121.916
133.48
126.405
140.35
122.478
125.982
128.718
107.175
117.415
127.189
106.473
113.84
112.19
121.627
133.031
140.466
