153.356
110.579
112.238
110.781
120.292
108.852
106.807
107.352
131.675
106.005
146.089
112.221
146.615
134.211
107.886
120.732
129.584
154.384
127.481
150.168
109.805
113.246
145.863
121.414
141.329
119.834
126.842
123.148
114.718
110.163
105.567
126.5
107.4
131.262
123.358
132.117
140.808
122.71
149.736
114.978
117.891
114.008
139.385
126.419
129.506
116.316
108.287
122.616
113.687
144.149
118.748
115.65
135.628
143.202
144.49
116.627
145.041
118.165
149.452
145.93
153.368
113.738
118.915
119.932
145.795
146.219
111.583
123.822
132.228
142.6
143.016
126.814
112.055
127.461
152.957
146.805
152.774
129.432
143.548
142.773
117.726
132.611
127.062
106.479
118.261
121.366
106.92
105.497
117.013
122.638
133.256
145.42
147.509
112.284
118.872
116.989
120.022
111.429
106.982
126.367
110.092
121.596
118.722
133.657
134.001
120.382
110.867
120.294
127.371
142.809
129.866
140.499
109.077
137.178
139.021
112.373
139.678
126.277
113.688
143.506
105.078
112.4
113.809
136.967
116.541
136.868
146.296
134.055
114.835
124.205
135.882
146.856
119.784
141.995
108.772
145.815
144.48
105.071
134.751
145.091
142.434
113.518
130.036
130.989
137.271
126.591
110.11
129.09
121.526
108.599
151.355
148.122
130.299
130.888
113.31
105.892
145.97
116.513
110.527
108.381
126.457
133.328
111.03
139.924
109.325
119.709
146.723
119.97
154.946
113.239
152.192
108.451
154.768
105.997
108.085
106.392
111.557
126.361
116.449
112.913
134.144
109.794
133.438
115.597
130.295
136.414
145.251
118.737
137.168
111.1
110.445
145.114
130.066
132.105
111.819
122.749
132.535
132.212
105.665
135.543
108.208
132.345
130.028
127.969
136.141
117.033
142.822
120.079
135.816
145.545
123.347
116.45
122.377
121.546
122.346
114.261
129.121
116.343
107.51
107.285
118.655
105.424
135.836
105.508
111.504
116.669
106.925
136.677
105.787
116.57
135.69
134.057
147.054
105.04
146.698
136.406
140.625
127.729
135.058
113.69
133.857
140.482
121.036
124.063
129.528
126.731
130.053
113.256
137.084
120.963
133.372
133.251
120.564
121.494
115.783
136.089
143.045
118.506
144.589
154.255
154.043
125.602
140.61
127.058
126.164
151.506
110.043
117.759
127.063
111.538
134.929
125.964
108.746
107.495
119.386
131.138
111.004
153.301
118.651
130.099
124.989
134.355
122.06
129.052
136.223
109.492
114.578
127.127
132.935
106.182
120.124
133.243
127.482
119.665
109.566
148.972
150.518
119.335
113.918
114.708
109.868
106.478
105.707
125.112
126.875
106.847
130.527
114.535
131.844
130.221
152.022
114.46
120.561
146.42
139.269
126.53
143.801
108.541
123.653
124.32
133.157
142.483
122.187
138.256
105.841
108.82
118.167
110.487
154.21
105.665
141.972
134.071
105.979
122.377
115.958
118.565
112.309
126.432
153.033
107.957
118.33
137.176
130.902
111.047
113.291
121.521
142.047
120.081
105.484
113.123
110.71
125.101
120.098
125.459
153.036
107.659
135.775
117.711
117.919
143.889
119.908
118.127
126.082
126.364
143.649
138.484
123.56
118.364
119.48
151.402
109.507
143.178
140.671
111.071
152.996
142.465
141.051
105.336
109.977
128.96
105.774
115.076
109.508
143.748
122.649
117.456
115.199
107.68
136.625
147.979
144.139
122.178
112.538
130.381
121.532
125.305
111.439
148.521
121.077
105.673
105.539
147.195
120.86
145.661
107.592
148.001
124.299
117.181
128.333
142.394
117.547
105.01
110.644
144.819
150.108
130.973
127.866
114.293
149.496
127.296
149.218
114.191
116.64
131.091
109.154
133.506
107.359
110.698
138.202
108.718
113.372
107.323
151.505
142.648
110.431
111.738
112.872
132.933
142.365
111.766
124.786
105.035
114.809
127.176
142.365
106.352
129.894
140.696
112.573
151.574
131.02
105.298
136.602
150.749
115.547
120.325
114.582
109.812
118.16
117.655
121.143
142.63
148.843
138.98
123.826
129.389
124.155
109.029
130.704
139.631
105.8
153.889
127.059
109.138
133.071
105.128
121.708
128.679
109.682
111.486
116.683
140.672
152.884
109.304
105.246
144.855
111.946
127.969
125.397
121.388
147.592
107.313
113.148
136.898
146.311
154.356
149.181
141.887
139.431
114.13
107.947
137.063
117.925
105.686
151.138
131.831
150.637
107.723
108.226
144.868
144.414
126.611
145.65
132.662
127.928
115.938
124.578
139.84
123.327
122.704
120.173
109.18
111.078
127.319
129.482
119.519
112.281
144.888
123.213
111.619
150.514
148.994
108.533
148.825
113.674
144.856
114.287
136.214
106.227
108.919
114.441
142.904
112.296
128.242
130.959
112.787
124.039
136.107
132.027
137.837
113.214
120.347
123.186
109.209
131.138
113.686
115.932
112.586
145.716
121.174
145.227
113.905
127.602
137.676
114.165
128.762
121.974
105.096
133.647
105.891
110.694
115.046
139.048
107.969
147.573
133.18
151.639
138.544
111.145
122.731
142.22
140.827
121.086
147.901
116.009
132.742
124.032
105.745
115.433
144.213
111.19
112.518
113.129
105.445
118.758
106.746
136.708
132.662
121.132
148.287
121.706
131.8
152.031
107.656
105.752
126.626
113.964
135.794
110.795
110.235
144.577
135.909
115.086
124.422
113.483
142.405
132.445
135.022
117.335
148.821
144.597
143.918
115.554
136.445
143.882
123.074
114.964
144.582
113.259
117.51
151.016
122.185
129.216
150.258
107.962
134.957
146.407
113.989
122.658
106.904
119.828
154.175
108.221
117.638
110.237
113.536
126.691
143.836
154.621
130.218
110.792
117.693
151.914
105.504
118.964
119.502
115.518
129.473
106.32
114.521
105.364
105.473
122.285
138.956
135.437
147.518
133.545
143.937
108.457
107.94
119.359
124.018
115.918
119.646
113.599
150.391
121.861
112.077
112.995
132.269
118.82
115.001
112.025
113.3
125.957
140.952
111.597
126.671
123.878
117.075
117.599
111.989
112.834
135.522
116.586
129.747
136.782
141.362
137.617
109.97
106.272
152.446
105.777
125.943
131.586
136.189
107.521
125.388
129.639
133.627
111.129
149.194
117.757
140.425
113.916
112.421
116.029
146.525
109.168
113.187
151.062
126.279
105.563
113.401
107.703
108.629
123.325
133.574
117.562
107.794
118.157
105.107
113.753
115.569
109.533
105.404
112.38
112.217
127.635
115.282
134.492
109.571
121.133
107.239
111.155
130.335
124.188
107.842
110.542
123.783
121.782
149.52
147.618
142.09
146.626
141.999
111.436
127.948
122.127
119.516
120.986
138.204
143.816
130.217
146.487
151.62
111.492
151.99
123.31
117.765
144.333
115.725
137.249
141.081
136.159
107.743
152.681
106.302
135.276
148.229
110.316
110.021
110.079
146.829
128.715
123.769
123.021
112.049
148.262
107.503
136.921
113.36
122.225
119.527
120.984
149.868
123.286
117.988
121.015
115.446
117.178
148.292
118.415
120.057
122.374
110.062
141.618
110.051
110.316
113.358
154.106
138.536
112.891
140.381
120.415
122.614
147.322
113.913
111.056
138.653
108.36
110.477
107.43
122.018
136.042
106.089
115.144
127.145
108.046
145.25
110.881
148.058
127.419
134.039
116.347
116.498
122.528
144.021
111.722
127.232
106.091
110.264
122.443
127.237
117.03
138.005
112.12
120.288
117.6
140.575
114.273
115.732
135.119
106.898
138.416
146.606
115.918
112.655
105.699
133.449
132.599
107.291
107.518
115.659
113.529
146.875
153.494
142.167
119.222
105.255
122.787
142.77
107.783
114.388
107.947
119.706
106.408
105.512
117.94
134.009
134.598
126.858
117.809
109.142
106.749
121.83
140.773
148.316
